<?xml version="1.0" encoding="UTF-8"?>
<!DOCTYPE svg PUBLIC "-//W3C//DTD SVG 1.1//EN" "http://www.w3.org/Graphics/SVG/1.1/DTD/svg11.dtd">
<!-- Creator: CorelDRAW X7 -->
<svg xmlns="http://www.w3.org/2000/svg" xml:space="preserve" width="69.3208mm" height="80.1686mm" version="1.1" style="shape-rendering:geometricPrecision; text-rendering:geometricPrecision; image-rendering:optimizeQuality; fill-rule:evenodd; clip-rule:evenodd"
viewBox="0 0 6932 8017"
 xmlns:xlink="http://www.w3.org/1999/xlink">
 <defs>
  <style type="text/css">
   <![CDATA[
    .fil13 {fill:#FEFEFE}
    .fil1 {fill:#C5C6C6}
    .fil8 {fill:black}
    .fil0 {fill:gray}
    .fil12 {fill:#9A0000}
    .fil3 {fill:#D08B00}
    .fil2 {fill:#FEC200}
    .fil4 {fill:white}
    .fil6 {fill:black;fill-rule:nonzero}
    .fil11 {fill:black;fill-rule:nonzero}
    .fil9 {fill:white;fill-rule:nonzero}
    .fil5 {fill:url(#id0)}
    .fil10 {fill:url(#id1)}
    .fil7 {fill:url(#id2)}
   ]]>
  </style>
  <linearGradient id="id0" gradientUnits="userSpaceOnUse" x1="5633" y1="7459.96" x2="5809.67" y2="7459.92">
   <stop offset="0" style="stop-opacity:1; stop-color:#87DB33"/>
   <stop offset="0.501961" style="stop-opacity:1; stop-color:#CCE038"/>
   <stop offset="1" style="stop-opacity:1; stop-color:#87DB33"/>
  </linearGradient>
  <linearGradient id="id1" gradientUnits="userSpaceOnUse" xlink:href="#id0" x1="3501.61" y1="7049.15" x2="3501.64" y2="7225.81">
  </linearGradient>
  <linearGradient id="id2" gradientUnits="userSpaceOnUse" xlink:href="#id0" x1="1174.04" y1="7584.99" x2="1174" y2="7408.33">
  </linearGradient>
 </defs>
 <g id="Layer_x0020_1">
  <metadata id="CorelCorpID_0Corel-Layer"/>
  <g id="_354499040">
   <polygon class="fil0" points="6927,7 6927,7008 5,7008 5,7 "/>
   <polygon class="fil1" points="6927,7008 3083,7008 1466,5450 5459,1456 6927,3232 "/>
   <g>
    <rect class="fil2" y="6983" width="6932" height="1027" rx="52" ry="51"/>
    <rect class="fil3" y="7752" width="6932" height="103"/>
    <rect class="fil3" y="7138" width="6932" height="103"/>
    <rect class="fil3" y="7342" width="6932" height="103"/>
    <rect class="fil3" y="7547" width="6932" height="103"/>
    <g>
     <circle class="fil4" cx="5722" cy="7496" r="411"/>
     <polygon class="fil5" points="5619,7851 5619,7142 5824,7142 5824,7851 "/>
     <path class="fil6" d="M5722 7090c112,0 214,45 287,119 74,73 119,175 119,287 0,112 -45,214 -119,288 -73,73 -175,119 -287,119 -112,0 -214,-46 -288,-119 -73,-74 -119,-176 -119,-288 0,-112 46,-214 119,-287 74,-74 176,-119 288,-119zm214 192c-54,-55 -130,-89 -214,-89 -84,0 -160,34 -215,89 -55,54 -89,130 -89,214 0,84 34,160 89,215 55,55 131,89 215,89 84,0 160,-34 214,-89 55,-55 89,-131 89,-215 0,-84 -34,-160 -89,-214z"/>
    </g>
    <g>
     <circle class="fil4" transform="matrix(3.72246E-014 -1.40551 1.40552 3.72243E-014 1210.3 7496.22)" r="292"/>
     <polygon class="fil7" points="1565,7599 856,7599 856,7394 1565,7394 "/>
     <path class="fil6" d="M804 7496c0,-112 45,-214 119,-287 74,-74 175,-119 287,-119 113,0 214,45 288,119 73,73 119,175 119,287 0,112 -46,214 -119,288 -74,73 -175,119 -288,119 -112,0 -213,-46 -287,-119 -74,-74 -119,-176 -119,-288zm192 -214c-55,54 -89,130 -89,214 0,84 34,160 89,215 55,55 130,89 214,89 84,0 160,-34 215,-89 55,-55 89,-131 89,-215 0,-84 -34,-160 -89,-214 -55,-55 -131,-89 -215,-89 -84,0 -159,34 -214,89z"/>
    </g>
    <rect class="fil8" x="6675" y="7138" width="257" height="717"/>
    <rect class="fil8" y="7138" width="257" height="717"/>
    <g>
     <path class="fil9" d="M3047 6983l903 0 0 219c0,77 -32,148 -83,199 -51,51 -122,82 -199,82l-415 0c-74,0 -142,-30 -191,-79 -49,-49 -80,-117 -80,-191l0 -230 65 0z"/>
     <g>
      <rect class="fil10" x="3111" y="7035" width="709" height="205"/>
      <path class="fil11" d="M3047 6983l64 0 0 230c0,39 16,74 42,100 25,26 61,42 100,42l415 0c42,0 80,-17 108,-45 28,-28 45,-66 45,-108l0 -219 129 0 0 219c0,77 -32,148 -83,199 -51,51 -122,82 -199,82l-415 0c-74,0 -142,-30 -191,-79 -49,-49 -80,-117 -80,-191l0 -230 65 0z"/>
     </g>
    </g>
   </g>
   <g>
    <circle class="fil12" cx="3466" cy="3453" r="2770"/>
    <path class="fil13" d="M3466 629c1560,0 2824,1265 2824,2824 0,1560 -1264,2825 -2824,2825 -1560,0 -2824,-1265 -2824,-2825 0,-1559 1264,-2824 2824,-2824zm0 236c1430,0 2589,1159 2589,2588 0,1430 -1159,2589 -2589,2589 -1430,0 -2589,-1159 -2589,-2589 0,-1429 1159,-2588 2589,-2588z"/>
   </g>
   <path class="fil13" d="M4092 3808c-66,-39 -158,-152 -264,-281 -105,-129 -223,-273 -319,-410 -96,-138 -169,-268 -223,-382 -55,-115 -90,-215 -109,-320 -19,-105 -22,-216 -7,-327 14,-112 45,-223 85,-315 40,-92 90,-166 170,-240 81,-75 192,-150 291,-196 99,-47 187,-63 280,-75 94,-12 193,-19 295,-3 102,15 206,53 303,110 97,56 186,132 256,214 70,81 120,169 156,264 37,96 61,200 64,323 4,123 -13,265 -52,397 -39,131 -100,251 -189,396 -89,144 -205,312 -308,452 -102,139 -192,250 -257,324 -65,73 -106,108 -172,69zm24 -2291c390,0 706,316 706,706 0,391 -316,707 -706,707 -391,0 -707,-316 -707,-707 0,-390 316,-706 707,-706zm5 948l-315 176 71 -330 -256 -245 355 -42 145 -298 153 319 341 43 -248 205 53 351 -299 -179zm-2827 1709l-171 -121 440 -184 199 142 -468 163zm1504 1050l-1263 -894 483 -177 1291 745 -511 326zm596 405l-376 -284 504 -320 390 228 -518 376zm1805 -1313l-981 724 -398 -220 1057 -667 322 163zm445 -284l-192 142 -333 -149 213 -149 312 156zm-816 -355l191 114 -142 135 -227 -57 178 -192zm-192 405l-113 -57 -298 270 411 -213zm-2221 -71c375,-154 756,-232 1150,-178l511 575 -455 284 -1206 -681zm-270 -171l-184 -113 1171 -461c80,111 161,222 241,333 -409,17 -818,111 -1228,241z"/>
  </g>
 </g>
</svg>
