<?xml version="1.0" encoding="UTF-8"?>
<!DOCTYPE svg PUBLIC "-//W3C//DTD SVG 1.1//EN" "http://www.w3.org/Graphics/SVG/1.1/DTD/svg11.dtd">
<!-- Creator: CorelDRAW X7 -->
<svg xmlns="http://www.w3.org/2000/svg" xml:space="preserve" width="4.2332mm" height="4.2332mm" version="1.1" style="shape-rendering:geometricPrecision; text-rendering:geometricPrecision; image-rendering:optimizeQuality; fill-rule:evenodd; clip-rule:evenodd"
viewBox="0 0 423 423"
 xmlns:xlink="http://www.w3.org/1999/xlink">
 <defs>
  <style type="text/css">
   <![CDATA[
    .fil0 {fill:#FEFEFE}
   ]]>
  </style>
 </defs>
 <g id="Layer_x0020_1">
  <metadata id="CorelCorpID_0Corel-Layer"/>
  <path class="fil0" d="M201 115l-154 80c-4,1 -8,5 -10,9 -5,10 -1,23 9,28l157 78 156 79 0 0 0 0c3,1 6,2 9,2 12,0 21,-9 21,-21l-1 -128 -98 -1c-13,0 -24,-11 -23,-24 0,-13 10,-24 24,-24l97 1 -1 -141 0 0c0,-3 -1,-7 -2,-9 -6,-10 -18,-14 -28,-9l-156 80z"/>
 </g>
</svg>
